[
     {
        "name": "Ray0直播",
        "url": "https://xhdwc.tk/tvlive.txt&&&http://3650000.xyz/api/360.php?cid=9"
    },
    {
        "name": "月光直播",
        "url": "http://xytvm.us.kg:35455/tv.m3u&&&http://s1.ax1x.com/2023/06/08/pCkdrrQ.png"
    },
    {
        "name": "肥猫",
        "url": "http://我不是.肥猫.live/TV/tvzb.txt&&&http://3650000.xyz/api/360.php?cid=9"
    },
    {
        "name": "扫地僧",
        "url": "https://qusiqi.eu.org/zb&&&http://3650000.xyz/api/360.php?cid=9"
    }

]
